module gitlab.com/tokamak-git/bcs

go 1.15

require (
	github.com/canthefason/go-watcher v0.2.4 // indirect
	github.com/fatih/color v1.10.0 // indirect
	github.com/gin-gonic/gin v1.6.3
	github.com/go-playground/assert/v2 v2.0.1
	github.com/go-playground/validator/v10 v10.4.1 // indirect
	github.com/go-redis/redis v6.15.9+incompatible
	github.com/go-redis/redis/v8 v8.4.0
	github.com/golang/protobuf v1.4.3 // indirect
	github.com/gomodule/redigo v1.8.2
	github.com/jackc/pgx/v4 v4.9.2 // indirect
	github.com/json-iterator/go v1.1.10 // indirect
	github.com/modern-go/concurrent v0.0.0-20180306012644-bacd9c7ef1dd // indirect
	github.com/modern-go/reflect2 v1.0.1 // indirect
	github.com/streadway/amqp v1.0.0
	github.com/stretchr/testify v1.6.1
	github.com/ugorji/go v1.2.0 // indirect
	golang.org/x/crypto v0.0.0-20201117144127-c1f2f97bffc9 // indirect
	golang.org/x/sys v0.0.0-20201119102817-f84b799fce68 // indirect
	golang.org/x/text v0.3.4 // indirect
	golang.org/x/xerrors v0.0.0-20200804184101-5ec99f83aff1 // indirect
	google.golang.org/protobuf v1.25.0 // indirect
	gopkg.in/fsnotify.v1 v1.4.7 // indirect
	gopkg.in/yaml.v2 v2.3.0 // indirect
	gopkg.in/yaml.v3 v3.0.0-20200615113413-eeeca48fe776 // indirect
	gorm.io/driver/postgres v1.0.5
	gorm.io/gorm v1.20.7
)
